[
  {
    "id": 1,
    "title": "All Day Event",
    "start": "2021-06-01",
    "end": "2021-06-04",
    "allDay": true
  },
  {
    "id": 2,
    "title": "Long Event",
    "start": "2017-02-07",
    "end": "2017-02-10"
  },
  {
    "id": 3,
    "title": "Repeating Event",
    "start": "2021-06-11"
  }
]
